%YAML 1.1
%TAG !u! tag:unity3d.com,2011:
--- !u!1001 &4850305816673072136
PrefabInstance:
  m_ObjectHideFlags: 0
  serializedVersion: 2
  m_Modification:
    m_TransformParent: {fileID: 0}
    m_Modifications:
    - target: {fileID: -8679921383154817045, guid: 7e29d47c872a25a43b03fab1720f1d6f, type: 3}
      propertyPath: m_RootOrder
      value: 0
      objectReference: {fileID: 0}
    - target: {fileID: -8679921383154817045, guid: 7e29d47c872a25a43b03fab1720f1d6f, type: 3}
      propertyPath: m_LocalScale.x
      value: 15.818435
      objectReference: {fileID: 0}
    - target: {fileID: -8679921383154817045, guid: 7e29d47c872a25a43b03fab1720f1d6f, type: 3}
      propertyPath: m_LocalScale.y
      value: 15.818435
      objectReference: {fileID: 0}
    - target: {fileID: -8679921383154817045, guid: 7e29d47c872a25a43b03fab1720f1d6f, type: 3}
      propertyPath: m_LocalScale.z
      value: 15.302981
      objectReference: {fileID: 0}
    - target: {fileID: -8679921383154817045, guid: 7e29d47c872a25a43b03fab1720f1d6f, type: 3}
      propertyPath: m_LocalPosition.x
      value: -1.18
      objectReference: {fileID: 0}
    - target: {fileID: -8679921383154817045, guid: 7e29d47c872a25a43b03fab1720f1d6f, type: 3}
      propertyPath: m_LocalPosition.y
      value: 3.87
      objectReference: {fileID: 0}
    - target: {fileID: -8679921383154817045, guid: 7e29d47c872a25a43b03fab1720f1d6f, type: 3}
      propertyPath: m_LocalPosition.z
      value: -1.94
      objectReference: {fileID: 0}
    - target: {fileID: -8679921383154817045, guid: 7e29d47c872a25a43b03fab1720f1d6f, type: 3}
      propertyPath: m_LocalRotation.w
      value: 0.7071068
      objectReference: {fileID: 0}
    - target: {fileID: -8679921383154817045, guid: 7e29d47c872a25a43b03fab1720f1d6f, type: 3}
      propertyPath: m_LocalRotation.x
      value: -0.7071068
      objectReference: {fileID: 0}
    - target: {fileID: -8679921383154817045, guid: 7e29d47c872a25a43b03fab1720f1d6f, type: 3}
      propertyPath: m_LocalRotation.y
      value: -0
      objectReference: {fileID: 0}
    - target: {fileID: -8679921383154817045, guid: 7e29d47c872a25a43b03fab1720f1d6f, type: 3}
      propertyPath: m_LocalRotation.z
      value: -0
      objectReference: {fileID: 0}
    - target: {fileID: -8679921383154817045, guid: 7e29d47c872a25a43b03fab1720f1d6f, type: 3}
      propertyPath: m_LocalEulerAnglesHint.x
      value: -90
      objectReference: {fileID: 0}
    - target: {fileID: -8679921383154817045, guid: 7e29d47c872a25a43b03fab1720f1d6f, type: 3}
      propertyPath: m_LocalEulerAnglesHint.y
      value: 0
      objectReference: {fileID: 0}
    - target: {fileID: -8679921383154817045, guid: 7e29d47c872a25a43b03fab1720f1d6f, type: 3}
      propertyPath: m_LocalEulerAnglesHint.z
      value: 0
      objectReference: {fileID: 0}
    - target: {fileID: 919132149155446097, guid: 7e29d47c872a25a43b03fab1720f1d6f, type: 3}
      propertyPath: m_Name
      value: bottle
      objectReference: {fileID: 0}
    m_RemovedComponents: []
  m_SourcePrefab: {fileID: 100100000, guid: 7e29d47c872a25a43b03fab1720f1d6f, type: 3}
